{
  "version": 6,
  "entities": [
    {
      "entity": {
        "type": "Project",
        "id": "5233f9a1-b3fd-4aed-949f-dabbe384b6ee",
        "name": "PAS"
      },
      "children": [
        {
          "entity": {
            "type": "Scenario",
            "description": "Prueba de las funcionalidades que el Trabajo practico 2 de la materia PAS pide de la aplicación.",
            "id": "dbee4f74-2c55-4941-b455-38ebc487d37b",
            "name": "TP2"
          },
          "children": [
            {
              "entity": {
                "type": "Request",
                "method": {
                  "requestBody": true,
                  "link": "http://tools.ietf.org/html/rfc7231#section-4.3.3",
                  "name": "POST"
                },
                "body": {
                  "formBody": {
                    "encoding": "multipart/form-data",
                    "items": [
                      {
                        "enabled": true,
                        "type": "Text",
                        "name": "email",
                        "value": "a@gmail.com"
                      },
                      {
                        "enabled": true,
                        "type": "Text",
                        "name": "password",
                        "value": "holahola"
                      }
                    ]
                  },
                  "bodyType": "Text",
                  "textBody": "{\"email\":\"a@gmail.com\",\"password\":\"a@gmail.com\"}"
                },
                "uri": {
                  "query": {
                    "delimiter": "&",
                    "items": []
                  },
                  "scheme": {
                    "name": "http",
                    "version": "V11"
                  },
                  "host": "localhost:8080",
                  "path": "/api/login"
                },
                "description": "Esta prueba envía un pedido de \"signIn\" o \"login\" a la aplicación, con el username y la password de un usuario conocido. Si el login es exitoso entonces se devolverá un token JWT, el cual puede ser usado para tener acceso al resto de las APIS de la aplicación que necesitan autorización. Para usar el token se puede reemplazar la variable \"token\" de este escenario por la que te devuelva el singIn/login, el resto de las pruebas la usaran.",
                "id": "6996fae4-ceb9-4f6a-9163-277a041a167d",
                "name": "Login",
                "headers": [
                  {
                    "enabled": true,
                    "name": "Content-Type",
                    "value": "application/json"
                  }
                ]
              }
            },
            {
              "entity": {
                "type": "Request",
                "method": {
                  "requestBody": true,
                  "link": "https://tools.ietf.org/html/rfc7231#section-4.3",
                  "name": "POST"
                },
                "body": {
                  "formBody": {
                    "encoding": "multipart/form-data",
                    "items": [
                      {
                        "enabled": true,
                        "type": "Text",
                        "name": "calle",
                        "value": "14"
                      },
                      {
                        "enabled": true,
                        "type": "Text",
                        "name": "numero",
                        "value": "231"
                      },
                      {
                        "enabled": true,
                        "type": "Text",
                        "name": "piso",
                        "value": "0"
                      },
                      {
                        "enabled": true,
                        "type": "Text",
                        "name": "departamento"
                      },
                      {
                        "enabled": true,
                        "type": "Text",
                        "name": "localidad",
                        "value": "La Plata"
                      },
                      {
                        "enabled": true,
                        "type": "Text",
                        "name": "provincia",
                        "value": "Buenos Aires"
                      },
                      {
                        "enabled": true,
                        "type": "Text",
                        "name": "pais",
                        "value": "Argentina"
                      }
                    ]
                  },
                  "bodyType": "Text",
                  "textBody": "{\n    \"Calle\": \"125\",\n    \"Numero\": \"9181\",\n    \"Piso\": \"22\",\n    \"Departamento\": \"31\",\n    \"Localidad\": \"La Plata\",\n    \"Provincia\": \"Buenos Aires\",\n    \"Pais\": \"Argentina\"\n    }"
                },
                "uri": {
                  "query": {
                    "delimiter": "&",
                    "items": []
                  },
                  "scheme": {
                    "name": "http",
                    "version": "V11"
                  },
                  "host": "localhost:8080",
                  "path": "/api/direccion/create"
                },
                "description": "Prueba de creación de una dirección. Recordar actualizar la variable de ambiente \"token\" antes de intentar crear una dirección nueva.",
                "id": "3ad13922-f12d-495d-a51a-b00f06cfd943",
                "name": "POST Direccion",
                "headers": [
                  {
                    "enabled": true,
                    "name": "Authorization",
                    "value": "Bearer ${getEntityById(\"6996fae4-ceb9-4f6a-9163-277a041a167d\").\"response\".\"body\".\"accessToken\"}"
                  },
                  {
                    "enabled": true,
                    "name": "Content-Type",
                    "value": "application/json"
                  }
                ],
                "assertions": []
              }
            },
            {
              "entity": {
                "type": "Request",
                "method": {
                  "link": "https://tools.ietf.org/html/rfc7231#section-4.3",
                  "name": "GET"
                },
                "body": {
                  "bodyType": "Text",
                  "textBody": ""
                },
                "uri": {
                  "query": {
                    "delimiter": "&",
                    "items": []
                  },
                  "scheme": {
                    "name": "http",
                    "version": "V11"
                  },
                  "host": "localhost:8080",
                  "path": "/api/direccion/all"
                },
                "description": "Prueba de listado de direcciones en la base de datos. Recordar actualizar la variable de ambiente \"token\" antes de intentar listar las direcciones.",
                "id": "5e33d84c-a43b-4438-9f06-65a6e01eaebd",
                "name": "GET Direcciones",
                "headers": [
                  {
                    "enabled": true,
                    "name": "Authorization",
                    "value": "Bearer ${getEntityById(\"6996fae4-ceb9-4f6a-9163-277a041a167d\").\"response\".\"body\".\"accessToken\"}"
                  }
                ],
                "assertions": []
              }
            },
            {
              "entity": {
                "type": "Request",
                "method": {
                  "requestBody": true,
                  "link": "https://tools.ietf.org/html/rfc7231#section-4.3",
                  "name": "POST"
                },
                "body": {
                  "formBody": {
                    "overrideContentType": true,
                    "encoding": "multipart/form-data",
                    "items": [
                      {
                        "enabled": true,
                        "type": "Text",
                        "name": "nombres",
                        "value": "Raul"
                      },
                      {
                        "enabled": true,
                        "type": "Text",
                        "name": "apellido",
                        "value": "Favio"
                      },
                      {
                        "enabled": true,
                        "type": "Text",
                        "name": "fechaNacimiento",
                        "value": "1/2/1990"
                      },
                      {
                        "enabled": true,
                        "type": "Text",
                        "name": "email",
                        "value": "das@gmail.com"
                      },
                      {
                        "enabled": true,
                        "type": "Text",
                        "name": "rol",
                        "value": "ADMIN"
                      },
                      {
                        "enabled": true,
                        "type": "Text",
                        "name": "direccionDeFacturacion",
                        "value": "{     \"Calle\": \"125\",     \"Numero\": \"9181\",     \"Piso\": \"22\",     \"Departamento\": \"31\",     \"Localidad\": \"La Plata\",     \"Provincia\": \"Buenos Aires\",     \"Pais\": \"Argentina\"     }"
                      },
                      {
                        "enabled": true,
                        "type": "Text",
                        "name": "direccionesDeEnvio",
                        "value": "[         {             \"Calle\": \"51\",             \"Numero\": \"91481\",             \"Piso\": \"22\",             \"Departamento\": \"31\",             \"Localidad\": \"La Plata\",             \"Provincia\": \"Buenos Aires\",             \"Pais\": \"Argentina\"         },         {             \"Calle\": \"152\",             \"Numero\": \"91814\",             \"Piso\": \"2\",             \"Departamento\": \"31\",             \"Localidad\": \"La Plata\",             \"Provincia\": \"Buenos Aires\",             \"Pais\": \"Argentina\"         },         {             \"Calle\": \"13\",             \"Numero\": \"95181\",             \"Piso\": \"12\",             \"Departamento\": \"31\",             \"Localidad\": \"La Plata\",             \"Provincia\": \"Buenos Aires\",             \"Pais\": \"Argentina\"         }     ]"
                      },
                      {
                        "enabled": true,
                        "type": "Text",
                        "name": "password",
                        "value": "buenas"
                      }
                    ]
                  },
                  "bodyType": "Text",
                  "textBody": "{\n        \"Nombre\": \"Juan\",\n        \"Apellido\": \"Pérez\",\n        \"Fecha de nacimineto\": \"15/01/2000\",\n        \"Email\": \"d@gmail.com\",\n        \"Contraseña\": \"d@gmail.com\",\n        \"Roles\": [ \"ADMIN\" ],\n        \"Direccion de facturacion\": {\n            \"Calle\": \"15\",\n            \"Numero\": \"981\",\n            \"Piso\": \"2\",\n            \"Departamento\": \"3\",\n            \"Localidad\": \"La Plata\",\n            \"Provincia\": \"Buenos Aires\",\n            \"Pais\": \"Argentina\"\n        },\n        \"Direcciones de envio\": [\n            {\n                \"Calle\": \"15\",\n                \"Numero\": \"981\",\n                \"Piso\": \"2\",\n                \"Departamento\": \"3\",\n                \"Localidad\": \"La Plata\",\n                \"Provincia\": \"Buenos Aires\",\n                \"Pais\": \"Argentina\"\n            },\n            {\n                \"Calle\": \"44\",\n                \"Numero\": \"1981\",\n                \"Piso\": \"10\",\n                \"Departamento\": \"10\",\n                \"Localidad\": \"CABA\",\n                \"Provincia\": \"CABA\",\n                \"Pais\": \"Argentina\"\n            }\n        ]\n    }"
                },
                "uri": {
                  "scheme": {
                    "name": "http",
                    "version": "V11"
                  },
                  "path": "localhost:8080/api/personas/create"
                },
                "description": "Prueba de creación de una persona. Recordar actualizar la variable de ambiente \"token\" antes de intentar crear una nueva persona",
                "id": "4ef79f2e-613b-45a8-8da1-d8dbdd30d4ee",
                "name": "POST Persona",
                "headers": [
                  {
                    "enabled": true,
                    "name": "Authorization",
                    "value": "Bearer ${getEntityById(\"6996fae4-ceb9-4f6a-9163-277a041a167d\").\"response\".\"body\".\"accessToken\"}"
                  },
                  {
                    "enabled": true,
                    "name": "Content-Type",
                    "value": "application/json"
                  }
                ],
                "assertions": []
              }
            },
            {
              "entity": {
                "type": "Request",
                "method": {
                  "link": "https://tools.ietf.org/html/rfc7231#section-4.3",
                  "name": "GET"
                },
                "body": {
                  "bodyType": "Text",
                  "textBody": ""
                },
                "uri": {
                  "scheme": {
                    "name": "http",
                    "version": "V11"
                  },
                  "path": "localhost:8080/api/personas/all"
                },
                "description": "Prueba de listado de las personas en la base de datos. Recordar actualizar la variable de ambiente \"token\" antes de intentar listar las personas.",
                "id": "ed0fdbf3-29b8-4794-827d-58391ea4fcc5",
                "name": "GET Personas",
                "headers": [
                  {
                    "enabled": true,
                    "name": "Authorization",
                    "value": "Bearer ${getEntityById(\"6996fae4-ceb9-4f6a-9163-277a041a167d\").\"response\".\"body\".\"accessToken\"}"
                  }
                ],
                "assertions": []
              }
            },
            {
              "entity": {
                "type": "Request",
                "method": {
                  "link": "http://tools.ietf.org/html/rfc7231#section-4.3.5",
                  "name": "DELETE"
                },
                "body": {
                  "formBody": {
                    "overrideContentType": true,
                    "encoding": "application/x-www-form-urlencoded",
                    "items": []
                  },
                  "bodyType": "Text",
                  "textBody": ""
                },
                "uri": {
                  "query": {
                    "delimiter": "&",
                    "items": []
                  },
                  "scheme": {
                    "name": "http",
                    "version": "V11"
                  },
                  "host": "localhost:8080",
                  "path": "/api/personas/delete/b@gmail.com"
                },
                "description": "Prueba de listado de las personas en la base de datos. Recordar actualizar la variable de ambiente \"token\" antes de intentar listar las personas.",
                "id": "1c230d8b-a742-4842-b8af-ba9410fb4935",
                "name": "DEL Persona",
                "headers": [
                  {
                    "enabled": true,
                    "name": "Authorization",
                    "value": "Bearer ${getEntityById(\"6996fae4-ceb9-4f6a-9163-277a041a167d\").\"response\".\"body\".\"accessToken\"}"
                  }
                ],
                "assertions": []
              }
            }
          ]
        }
      ]
    }
  ]
}